{
     "discovery.impl.keys.storage.lowdb.KeyDataStruct" : [
         {
             "_hxcls" : "discovery.impl.keys.storage.lowdb.KeyDataStruct"
            ,"keyType" : {
                 "_hxcls" : "discovery.keys.serialization.SerializedKeyType"
                ,"name" : "RSA"
                ,"params" : [
                     {
                         "_hxcls" : "discovery.keys.crypto.RSAKeyParameters"
                        ,"modulusLength" : 2048
                        ,"publicExponent" : null
                    }
                ]
            }
            ,"fingerprint" : {
                 "alg" : "SHA-256"
                ,"hash" : {
                     "_hxcls" : "discovery.format.TextWithFormat"
                    ,"data" : "2T7kC025Y7erWr6FY84JAfKSSObUr6TGXqyL0xTXons"
                    ,"format" : "b64u"
                }
            }
            ,"name" : null
            ,"privateKey" : {
                 "_hxcls" : "discovery.keys.serialization.SerializedKey"
                ,"format" : "Jwk"
                ,"data" : {
                     "_hxcls" : "discovery.format.TextWithFormat"
                    ,"data" : "{\"kty\":\"RSA\",\"n\":\"0t35Fz7hkSqTYszpPkRmmBmmbekdx_BBtcQ7aP-xvNyMekqdT0xlNhXpH1LV8dWZaUBOfd8ENIe41EtkbZgBODwneRYoioq2gqxMgHX7PPcgvurd5QbEVt6mPh8b_gYget3RM5BhjCfZMTytS9vRv4sU6bShwqQ4JwHzY6CzUOXW6hcKJCom9Ji4hUsmGVoRYgS07orCsKQWq5Xr4qGLehLsWReb5653ppIpJcKznYRvqa6oN0ocgwlhWcOArYO6kY_JJIH_I81-VOU9bf4Qy6ref6LUozhfTDVC2DNguo2f9x-ch1oUpHfyTneI6qQyMyl3tklwOb2DXzPHPKJX5w\",\"e\":\"AQAB\",\"d\":\"dKeYRePjpguHvgDeiDQPDdYi3Gs6roGb2JLWyx-plHHuxTjCDjyVQXadoVaSRVeFp1SMF9Zo3Sa4ebm7tWWCRzoAHFzF0N8sWN449FhQxUlyNCx61VkJBYXnMjbDpaR-E3rjYUNes8rXvQV0WaMiRnUK_L-RPbzb07igjV051mZPjHf5mbRu9LmAhNjsHhRTqN1XWDsfbOzpiYSb0mSSmw1lzvkJuCzFecN9sIVCcswjdPp5SyYD9q6YouB7YmU6iuxZ22SF-ptBk-5VUHwMf6-a3xxYC_vpRG5KGgqQa6CPIA8miqvo_d108m5HvgXTK5z0ujFIOadb29w4On7dAQ\",\"p\":\"6MQBDg2eJYsJx9YStn1QscyctiFJpp_nYY1xR6WNYkwIhJnwyxcj1oJmuPTTZxehAu9GTc3qwFThaQPA2woi3k1YFJ04XOBdq1RQDMTX-okoZyldR1Ult4MPyWyE6-io0I9DDBYmLsftmDWjnVBr5wRg--S_nkkdYyA_E9p00Ks\",\"q\":\"5-ph3FSVbyimvaG1t8AvbvfMxFrLOSfsOV2I7NTp34XvSQsUHRBTg7jH2uxzkivbldfLq3zPGRjJMHlOk_5ucF_165r05LLSI48LS8hu3R_3i8tgDOhBRtntHEVZptLnVSm84oFXO6crxcMroS2rLiNfMGoC6VyE3DZs_VWWbbU\",\"dp\":\"WEQbckzPr8TtzI3tQq56rzG8K4Sr_Ted8mxEjLrGxoO2pzIJEbqQqIOCmJieofVf5VD_A_oWDyEg6UW3GFjbqBkEUazc9rtOSe4K_QyYKjVg0N3qtWYgi1pz3hn8vcjYW144OpkbmZnPC20rwjgA8vXCIUM5NrjbH__Wa5znt0k\",\"dq\":\"oOBQHl12g_O5JxbETcE9pkazfwpUq0NsdKbT0yYnTm1EfnD29OpcZKWLzev0h9NwsdNOb5lWuFwfREcCIVuAFOgcWeHWO8doSk5yUZGqhi4ktI7SBGIg1htahh_9fuISo1sesily7-iZTsiCvX5GnuzenWEMwAD0ESaYGGyEu3k\",\"qi\":\"GBggOAUxuhSOWZdbHHBpgb_TE0RB10ZX2mldzGuqoKDu4uABmqXzuDYO1jeFyzIl10EWlEUPe5lTQ27oyjz91gqRo07UZgfr5ldyp0YAH0S2GZBIuh811gWuvcb5mpEznK-fD9lOtkp6zjnISQajVDkKZlv3hkViGgVjGSh0lbc\"}"
                    ,"format" : "utf8"
                }
            }
            ,"publicKey" : {
                 "_hxcls" : "discovery.keys.serialization.SerializedKey"
                ,"format" : "Jwk"
                ,"data" : {
                     "_hxcls" : "discovery.format.TextWithFormat"
                    ,"data" : "{\"kty\":\"RSA\",\"n\":\"0t35Fz7hkSqTYszpPkRmmBmmbekdx_BBtcQ7aP-xvNyMekqdT0xlNhXpH1LV8dWZaUBOfd8ENIe41EtkbZgBODwneRYoioq2gqxMgHX7PPcgvurd5QbEVt6mPh8b_gYget3RM5BhjCfZMTytS9vRv4sU6bShwqQ4JwHzY6CzUOXW6hcKJCom9Ji4hUsmGVoRYgS07orCsKQWq5Xr4qGLehLsWReb5653ppIpJcKznYRvqa6oN0ocgwlhWcOArYO6kY_JJIH_I81-VOU9bf4Qy6ref6LUozhfTDVC2DNguo2f9x-ch1oUpHfyTneI6qQyMyl3tklwOb2DXzPHPKJX5w\",\"e\":\"AQAB\"}"
                    ,"format" : "utf8"
                }
            }
        }
        ,{
             "_hxcls" : "discovery.impl.keys.storage.lowdb.KeyDataStruct"
            ,"keyType" : {
                 "_hxcls" : "discovery.keys.serialization.SerializedKeyType"
                ,"name" : "EllipticCurve"
                ,"params" : [
                     {
                         "_hxcls" : "discovery.keys.crypto.EllipticCurveParameters"
                        ,"namedCurve" : "P-256"
                    }
                ]
            }
            ,"fingerprint" : {
                 "alg" : "SHA-256"
                ,"hash" : {
                     "_hxcls" : "discovery.format.TextWithFormat"
                    ,"data" : "UCZwH3Xjrjepbme42Ar1hXZU0oVq3BHQHTeeOYPI4vQ"
                    ,"format" : "b64u"
                }
            }
            ,"name" : null
            ,"privateKey" : {
                 "_hxcls" : "discovery.keys.serialization.SerializedKey"
                ,"format" : "Jwk"
                ,"data" : {
                     "_hxcls" : "discovery.format.TextWithFormat"
                    ,"data" : "{\"kty\":\"EC\",\"crv\":\"P-256\",\"x\":\"BToJTtftAIvjlymGT0BU__Bd29KNHS5wYMRiNMNXuGg\",\"y\":\"T7o83mJMG3NBpFADQr6V979A_tUa3gmlJlkln5IprsM\",\"d\":\"I37iz0RHDsxUfd_S4oqvQoJdZXqglVZ8wR-LczXQpwY\"}"
                    ,"format" : "utf8"
                }
            }
            ,"publicKey" : {
                 "_hxcls" : "discovery.keys.serialization.SerializedKey"
                ,"format" : "Jwk"
                ,"data" : {
                     "_hxcls" : "discovery.format.TextWithFormat"
                    ,"data" : "{\"kty\":\"EC\",\"crv\":\"P-256\",\"x\":\"BToJTtftAIvjlymGT0BU__Bd29KNHS5wYMRiNMNXuGg\",\"y\":\"T7o83mJMG3NBpFADQr6V979A_tUa3gmlJlkln5IprsM\"}"
                    ,"format" : "utf8"
                }
            }
        }
        ,{
             "_hxcls" : "discovery.impl.keys.storage.lowdb.KeyDataStruct"
            ,"keyType" : {
                 "_hxcls" : "discovery.keys.serialization.SerializedKeyType"
                ,"name" : "EllipticCurve"
                ,"params" : [
                     {
                         "_hxcls" : "discovery.keys.crypto.EllipticCurveParameters"
                        ,"namedCurve" : "P-256"
                    }
                ]
            }
            ,"fingerprint" : {
                 "alg" : "SHA-256"
                ,"hash" : {
                     "_hxcls" : "discovery.format.TextWithFormat"
                    ,"data" : "mLfeURYEq5gUH8OZ11p9LkseII0ctfP8yHbDzP4i-Ys"
                    ,"format" : "b64u"
                }
            }
            ,"name" : null
            ,"privateKey" : {
                 "_hxcls" : "discovery.keys.serialization.SerializedKey"
                ,"format" : "Jwk"
                ,"data" : {
                     "_hxcls" : "discovery.format.TextWithFormat"
                    ,"data" : "{\"kty\":\"EC\",\"crv\":\"P-256\",\"x\":\"lsLrLxHpuUzRLxT3cKtbWQxxYUCYAniD5SlqEhFNWCo\",\"y\":\"e3_D7VGcc42Jy95vc2rECoRM6QzB6w2fw4wXA0QHXXo\",\"d\":\"RABVZ7DwI1EgBJF6mbYM57D-_xgMApPKkCCK0pfU654\"}"
                    ,"format" : "utf8"
                }
            }
            ,"publicKey" : {
                 "_hxcls" : "discovery.keys.serialization.SerializedKey"
                ,"format" : "Jwk"
                ,"data" : {
                     "_hxcls" : "discovery.format.TextWithFormat"
                    ,"data" : "{\"kty\":\"EC\",\"crv\":\"P-256\",\"x\":\"lsLrLxHpuUzRLxT3cKtbWQxxYUCYAniD5SlqEhFNWCo\",\"y\":\"e3_D7VGcc42Jy95vc2rECoRM6QzB6w2fw4wXA0QHXXo\"}"
                    ,"format" : "utf8"
                }
            }
        }
    ]
}